[gd_scene load_steps=8 format=1]

[ext_resource path="res://sprites/tiles/b_1.png" type="Texture" id=1]
[ext_resource path="res://sprites/tiles/b_2.png" type="Texture" id=2]
[ext_resource path="res://sprites/tiles/b_3.png" type="Texture" id=3]
[ext_resource path="res://sprites/tiles/b_5.png" type="Texture" id=4]
[ext_resource path="res://sprites/tiles/b_4.png" type="Texture" id=5]
[ext_resource path="res://sprites/tiles/b_6.png" type="Texture" id=6]

[sub_resource type="SpriteFrames" id=1]

animations = [ { "frames":[ ExtResource( 1 ), ExtResource( 2 ), ExtResource( 3 ), ExtResource( 4 ), ExtResource( 2 ), ExtResource( 5 ), ExtResource( 6 ) ], "loop":true, "name":"default", "speed":5.0 } ]

[node name="sprites" type="AnimatedSprite"]

frames = SubResource( 1 )
animation = "default"


